author,claim,date_published,img_main,is_video,label,url,url_caption
Shailesh Andrade,"A girl reacts as colored water is thrown on her face while celebrating Holi, the Festival of Colours, in Mumbai, India",March 13,https://s1.reutersmedia.net/resources/r/?m=02&d=20180112&t=2&i=1221554147&w=780&fh=&fw=&ll=&pl=&sq=&r=2018-01-12T204514Z_29091_MRPRC1EABA93A10_RTRMADP_0_FESTIVAL-HOLI-INDIA,False,true,https://www.reuters.com/news/picture/pictures-of-the-year-2017-idUSRTX3K0L3,MRPRC1EABA93A10_RTRMADP_0_FESTIVAL-HOLI-INDIA
Shannon Stapleton,"A man walks with a bloody lip as demonstrators yell at him outside the location where Richard Spencer, an avowed white nationalist and spokesperson for the so-called alt-right movement, is delivering a speech on the campus of the University of Florida in Gainesville, Florida",October 19,https://s4.reutersmedia.net/resources/r/?m=02&d=20180112&t=2&i=1221554054&w=780&fh=&fw=&ll=&pl=&sq=&r=2018-01-12T204514Z_29091_MRPRC16D7F13370_RTRMADP_0_USA-PROTESTS,False,true,https://www.reuters.com/news/picture/pictures-of-the-year-2017-idUSRTX3K0L3,MRPRC16D7F13370_RTRMADP_0_USA-PROTESTS
Mike Blake,"Air Force One departs Las Vegas past the broken windows on the Mandalay Bay hotel, where shooter Stephen Paddock conducted his mass shooting along the Las Vegas Strip in Las Vegas, Nevada",October 4,https://s2.reutersmedia.net/resources/r/?m=02&d=20180112&t=2&i=1221554071&w=780&fh=&fw=&ll=&pl=&sq=&r=2018-01-12T204514Z_29091_MRPRC1A1B55D970_RTRMADP_0_LASVEGAS-SHOOTING,False,true,https://www.reuters.com/news/picture/pictures-of-the-year-2017-idUSRTX3K0L3,MRPRC1A1B55D970_RTRMADP_0_LASVEGAS-SHOOTING
Hannah McKay,"Photographers help a Rohingya refugee to come out of Nad River as they cross the Myanmar-Bangladesh border in Palong Khali, near Cox's Bazar, Bangladesh",November 1,https://s2.reutersmedia.net/resources/r/?m=02&d=20180112&t=2&i=1221554110&w=780&fh=&fw=&ll=&pl=&sq=&r=2018-01-12T204514Z_29091_MRPRC1C7557E2C0_RTRMADP_0_MYANMAR-ROHINGYA-BANGLADESH-IMAGE,False,true,https://www.reuters.com/news/picture/pictures-of-the-year-2017-idUSRTX3K0L3,MRPRC1C7557E2C0_RTRMADP_0_MYANMAR-ROHINGYA-BANGLADESH-IMAGE
Jean-Paul Pelissier,"Smoke fills the sky above a burning hillside as tourists relax on the beach in Bormes-les-Mimosas, in the Var department, France",July 26,https://s4.reutersmedia.net/resources/r/?m=02&d=20180112&t=2&i=1221554109&w=780&fh=&fw=&ll=&pl=&sq=&r=2018-01-12T204514Z_29091_MRPRC1902E6CC20_RTRMADP_0_FRANCE-WILDFIRES,False,true,https://www.reuters.com/news/picture/pictures-of-the-year-2017-idUSRTX3K0L3,MRPRC1902E6CC20_RTRMADP_0_FRANCE-WILDFIRES
Stephanie Keith,Kandy Freeman participates in a Black Lives Matter protest in front of Trump Tower in New York City,January 14,https://s3.reutersmedia.net/resources/r/?m=02&d=20180112&t=2&i=1221554132&w=780&fh=&fw=&ll=&pl=&sq=&r=2018-01-12T204514Z_29091_MRPRC1D6E34BEE0_RTRMADP_0_USA-TRUMP,False,true,https://www.reuters.com/news/picture/pictures-of-the-year-2017-idUSRTX3K0L3,MRPRC1D6E34BEE0_RTRMADP_0_USA-TRUMP
Jonathan Bachman,"Residents wade through flood waters from Tropical Storm Harvey in Beaumont Place, Houston, Texas",August 28,https://s4.reutersmedia.net/resources/r/?m=02&d=20180112&t=2&i=1221554113&w=780&fh=&fw=&ll=&pl=&sq=&r=2018-01-12T204514Z_29091_MRPRC17722F1A00_RTRMADP_0_STORM-HARVEY,False,true,https://www.reuters.com/news/picture/pictures-of-the-year-2017-idUSRTX3K0L3,MRPRC17722F1A00_RTRMADP_0_STORM-HARVEY
Toby Melville,"Flames and smoke billow as firefighters deal with a serious fire in the Grenfell Tower apartment block at Latimer Road in West London, Britain",June 14,https://s2.reutersmedia.net/resources/r/?m=02&d=20180112&t=2&i=1221554156&w=780&fh=&fw=&ll=&pl=&sq=&r=2018-01-12T204514Z_29091_MRPRC1F6DF863F0_RTRMADP_0_BRITAIN-FIRE,False,true,https://www.reuters.com/news/picture/pictures-of-the-year-2017-idUSRTX3K0L3,MRPRC1F6DF863F0_RTRMADP_0_BRITAIN-FIRE
Goran Tomasevic,"A Syrian Democratic Forces (SDF) fighter sit as medics treat his comrades injured by sniper fired by Islamic State militants in a field hospital in Raqqa, Syria",June 28,https://s1.reutersmedia.net/resources/r/?m=02&d=20180112&t=2&i=1221554040&w=780&fh=&fw=&ll=&pl=&sq=&r=2018-01-12T204514Z_29091_MRPRC1322A05A70_RTRMADP_0_MIDEAST-CRISIS-SYRIA-RAQQA,False,true,https://www.reuters.com/news/picture/pictures-of-the-year-2017-idUSRTX3K0L3,MRPRC1322A05A70_RTRMADP_0_MIDEAST-CRISIS-SYRIA-RAQQA
Jim Bourg,"A Burning Man participant (L) evades a chasing firefighter and falls into the flames of the ""Man Burn"" after evading the attempted tackles of multiple rangers and law enforcement personnel at the annual Burning Man arts and music festival in the Black Rock Desert of Nevada, September 2017",,https://s3.reutersmedia.net/resources/r/?m=02&d=20180112&t=2&i=1221554105&w=780&fh=&fw=&ll=&pl=&sq=&r=2018-01-12T204514Z_29091_MRPRC17724CA810_RTRMADP_0_USA-BURNINGMAN,False,true,https://www.reuters.com/news/picture/pictures-of-the-year-2017-idUSRTX3K0L3,MRPRC17724CA810_RTRMADP_0_USA-BURNINGMAN
Jody Martin,"Residents view the first iceberg of the season as it passes the South Shore, also known as ""Iceberg Alley"", near Ferryland, Newfoundland, Canada",April 16,https://s4.reutersmedia.net/resources/r/?m=02&d=20180112&t=2&i=1221554039&w=780&fh=&fw=&ll=&pl=&sq=&r=2018-01-12T204514Z_29091_MRPRC114C987100_RTRMADP_0_GLOBAL-POY,False,true,https://www.reuters.com/news/picture/pictures-of-the-year-2017-idUSRTX3K0L3,MRPRC114C987100_RTRMADP_0_GLOBAL-POY
Carlos Barria,"US President Donald Trump meets with Russian President Vladimir Putin during the their bilateral meeting at the G20 summit in Hamburg, Germany July 7",,https://s3.reutersmedia.net/resources/r/?m=02&d=20180112&t=2&i=1221554043&w=780&fh=&fw=&ll=&pl=&sq=&r=2018-01-12T204514Z_29091_MRPRC133882A6F0_RTRMADP_0_G20-GERMANY-PUTIN-TRUMP,False,true,https://www.reuters.com/news/picture/pictures-of-the-year-2017-idUSRTX3K0L3,MRPRC133882A6F0_RTRMADP_0_G20-GERMANY-PUTIN-TRUMP
Nacho Doce,"A worker uses a table to move along a flooded street after heavy rainfall in Sao Paulo, Brazil April 7",,https://s4.reutersmedia.net/resources/r/?m=02&d=20180112&t=2&i=1221554044&w=780&fh=&fw=&ll=&pl=&sq=&r=2018-01-12T204514Z_29091_MRPRC118317B7F0_RTRMADP_0_BRAZIL-WEATHER,False,true,https://www.reuters.com/news/picture/pictures-of-the-year-2017-idUSRTX3K0L3,MRPRC118317B7F0_RTRMADP_0_BRAZIL-WEATHER
Marko Djurica,"Migrants walk during a snowfall inside a derelict customs warehouse in Belgrade, Serbia",January 11,https://s1.reutersmedia.net/resources/r/?m=02&d=20180112&t=2&i=1221554053&w=780&fh=&fw=&ll=&pl=&sq=&r=2018-01-12T204514Z_29091_MRPRC151323C990_RTRMADP_0_EUROPE-MIGRANTS-SERBIA,False,true,https://www.reuters.com/news/picture/pictures-of-the-year-2017-idUSRTX3K0L3,MRPRC151323C990_RTRMADP_0_EUROPE-MIGRANTS-SERBIA
Guadalupe Pard,"People cross a flooded street after a massive landslide and flood in the Huachipa district of Lima, Peru",March 17,https://s4.reutersmedia.net/resources/r/?m=02&d=20180112&t=2&i=1221554099&w=780&fh=&fw=&ll=&pl=&sq=&r=2018-01-12T204514Z_29091_MRPRC1DCBD77180_RTRMADP_0_PERU-FLOODS,False,true,https://www.reuters.com/news/picture/pictures-of-the-year-2017-idUSRTX3K0L3,MRPRC1DCBD77180_RTRMADP_0_PERU-FLOODS
Danish Siddiqui,"Hindu priests sit inside a cave as they perform evening prayers on the banks of the river Ganges in Devprayag, India",March 28,https://s4.reutersmedia.net/resources/r/?m=02&d=20180112&t=2&i=1221554046&w=780&fh=&fw=&ll=&pl=&sq=&r=2018-01-12T204514Z_29091_MRPRC1500518D00_RTRMADP_0_INDIA-GANGES,False,true,https://www.reuters.com/news/picture/pictures-of-the-year-2017-idUSRTX3K0L3,MRPRC1500518D00_RTRMADP_0_INDIA-GANGES
Omar Sobhani,"A wounded man lies on the ground at the site of a blast in Kabul, Afghanistan May 31",,https://s4.reutersmedia.net/resources/r/?m=02&d=20180112&t=2&i=1221554034&w=780&fh=&fw=&ll=&pl=&sq=&r=2018-01-12T204514Z_29091_MRPRC125391BE30_RTRMADP_0_AFGHANISTAN-BLAST,False,true,https://www.reuters.com/news/picture/pictures-of-the-year-2017-idUSRTX3K0L3,MRPRC125391BE30_RTRMADP_0_AFGHANISTAN-BLAST
Clodagh Kilcoyne,"Aibhin Kenneally aged 13 from the Flynn-O'Kane dance group warms up backstage before performing during the World Irish Dancing Championships in Dublin, Ireland April 11",,https://s2.reutersmedia.net/resources/r/?m=02&d=20180112&t=2&i=1221554035&w=780&fh=&fw=&ll=&pl=&sq=&r=2018-01-12T204514Z_29091_MRPLR1ED4B16RICL_RTRMADP_0_IRELAND-DANCING,False,true,https://www.reuters.com/news/picture/pictures-of-the-year-2017-idUSRTX3K0L3,MRPLR1ED4B16RICL_RTRMADP_0_IRELAND-DANCING
Maxim Shemetov,"Steam rises from chimneys of a heating power plant near a monument of Soviet cosmonaut Yuri Gagarin, the first man in space, with the air temperature at about minus 17 degrees Celsius (14 degrees Fahrenheit), during sunset in Moscow, Russia",January 9,https://s2.reutersmedia.net/resources/r/?m=02&d=20180112&t=2&i=1221554031&w=780&fh=&fw=&ll=&pl=&sq=&r=2018-01-12T204514Z_29091_MRPLR1ED1913B4MG_RTRMADP_0_RUSSIA-CITYSCAPE,False,true,https://www.reuters.com/news/picture/pictures-of-the-year-2017-idUSRTX3K0L3,MRPLR1ED1913B4MG_RTRMADP_0_RUSSIA-CITYSCAPE
Darrin Zammit Lupi,"Migrants try to stay afloat after falling off their rubber dinghy during a rescue operation by the Malta-based NGO Migrant Offshore Aid Station (MOAS) ship in the central Mediterranean in international waters some 15 nautical miles off the coast of Zawiya in Libya, April 14 All 134 sub-Saharan migrants survived and were rescued by MOAS",,https://s2.reutersmedia.net/resources/r/?m=02&d=20180112&t=2&i=1221554106&w=780&fh=&fw=&ll=&pl=&sq=&r=2018-01-12T204514Z_29091_MRPRC1E0EBBFE90_RTRMADP_0_EUROPE-MIGRANTS-RESCUE,False,true,https://www.reuters.com/news/picture/pictures-of-the-year-2017-idUSRTX3K0L3,MRPRC1E0EBBFE90_RTRMADP_0_EUROPE-MIGRANTS-RESCUE
Toby Melville,A woman assists an injured person after an incident on Westminster Bridge in London,March 22,https://s4.reutersmedia.net/resources/r/?m=02&d=20180112&t=2&i=1221554037&w=780&fh=&fw=&ll=&pl=&sq=&r=2018-01-12T204514Z_29091_MRPLR1ED3M169JQH_RTRMADP_0_BRITAIN-SECURITY,False,true,https://www.reuters.com/news/picture/pictures-of-the-year-2017-idUSRTX3K0L3,MRPLR1ED3M169JQH_RTRMADP_0_BRITAIN-SECURITY
Ammar Abdullah,"People collect scattered oranges amidst rubble after an airstrike on a market in rebel held Maarrat Misrin city in Idlib province, Syria January 14",,https://s1.reutersmedia.net/resources/r/?m=02&d=20180112&t=2&i=1221554052&w=780&fh=&fw=&ll=&pl=&sq=&r=2018-01-12T204514Z_29091_MRPRC16D079DB10_RTRMADP_0_MIDEAST-CRISIS-SYRIA,False,true,https://www.reuters.com/news/picture/pictures-of-the-year-2017-idUSRTX3K0L3,MRPRC16D079DB10_RTRMADP_0_MIDEAST-CRISIS-SYRIA
Jim Urquhart,"The sun is obscured by the moon during a solar eclipse as seen from an Alaska Airlines commercial jet at 40,000 feet above the Pacific Ocean off the coast of Depoe Bay, Oregon",August 21,https://s1.reutersmedia.net/resources/r/?m=02&d=20180112&t=2&i=1221554059&w=780&fh=&fw=&ll=&pl=&sq=&r=2018-01-12T204514Z_29091_MRPRC13EA97FE10_RTRMADP_0_SOLAR-ECLIPSE-USA,False,true,https://www.reuters.com/news/picture/pictures-of-the-year-2017-idUSRTX3K0L3,MRPRC13EA97FE10_RTRMADP_0_SOLAR-ECLIPSE-USA
Vladimir Pirogov,Plane debris is seen at the crash site of a Turkish cargo jet near Kyrgyzstan's Manas airport outside Bishkek,January 16,https://s2.reutersmedia.net/resources/r/?m=02&d=20180112&t=2&i=1221554091&w=780&fh=&fw=&ll=&pl=&sq=&r=2018-01-12T204514Z_29091_MRPRC194F3A2ED0_RTRMADP_0_KYRGYZSTAN-CRASH,False,true,https://www.reuters.com/news/picture/pictures-of-the-year-2017-idUSRTX3K0L3,MRPRC194F3A2ED0_RTRMADP_0_KYRGYZSTAN-CRASH
Hannah McKay,"Hosne Ara, 4, a Rohingya refugee who fled Myanmar two months ago, listens to children singing at a children's centre in the Kutupalong refugee camp near Cox's Bazar, Bangladesh",November 5,https://s2.reutersmedia.net/resources/r/?m=02&d=20180112&t=2&i=1221554126&w=780&fh=&fw=&ll=&pl=&sq=&r=2018-01-12T204514Z_29091_MRPRC1E3F18EE00_RTRMADP_0_MYANMAR-ROHINGYA-BANGLADESH,False,true,https://www.reuters.com/news/picture/pictures-of-the-year-2017-idUSRTX3K0L3,MRPRC1E3F18EE00_RTRMADP_0_MYANMAR-ROHINGYA-BANGLADESH
Jonathan Drake,"Vessels that sank during Hurricane Irma are seen in a Saint John bay 12 days after the devastating storm raked the island, on St John, US Virgin Islands",September 16,https://s1.reutersmedia.net/resources/r/?m=02&d=20180112&t=2&i=1221554048&w=780&fh=&fw=&ll=&pl=&sq=&r=2018-01-12T204514Z_29091_MRPRC116D414520_RTRMADP_0_STORM-IRMA,False,true,https://www.reuters.com/news/picture/pictures-of-the-year-2017-idUSRTX3K0L3,MRPRC116D414520_RTRMADP_0_STORM-IRMA
Goran Tomasevic,"A man cries as he carries his daughter while walking from an Islamic State-controlled part of Mosul towards Iraqi special forces soldiers during a battle in Mosul, Iraq March 4",,https://s3.reutersmedia.net/resources/r/?m=02&d=20180112&t=2&i=1221554100&w=780&fh=&fw=&ll=&pl=&sq=&r=2018-01-12T204514Z_29091_MRPRC1986323A70_RTRMADP_0_MIDEAST-CRISIS-IRAQ-MOSUL,False,true,https://www.reuters.com/news/picture/pictures-of-the-year-2017-idUSRTX3K0L3,MRPRC1986323A70_RTRMADP_0_MIDEAST-CRISIS-IRAQ-MOSUL
Hamad I Mohammed,"Light from a mobile phone illuminates a Saudi woman's face during Iraqi singer Majid Al Muhandis' live performance as part of Spring of Culture 2017 in Manama, Bahrain",March 10,https://s4.reutersmedia.net/resources/r/?m=02&d=20180112&t=2&i=1221554068&w=780&fh=&fw=&ll=&pl=&sq=&r=2018-01-12T204514Z_29091_MRPRC1A74982C30_RTRMADP_0_BAHRAIN-SINGER,False,true,https://www.reuters.com/news/picture/pictures-of-the-year-2017-idUSRTX3K0L3,MRPRC1A74982C30_RTRMADP_0_BAHRAIN-SINGER
Alexandre Meneghini,"Farmer Osvaldo Lemas, 83, looks to the camera as he picks tobacco leaves at a farm in Cuba's western province of Pinar del Rio, Cuba",February 28,https://s4.reutersmedia.net/resources/r/?m=02&d=20180112&t=2&i=1221554050&w=780&fh=&fw=&ll=&pl=&sq=&r=2018-01-12T204514Z_29091_MRPRC13EBC473D0_RTRMADP_0_CUBA-CIGARS,False,true,https://www.reuters.com/news/picture/pictures-of-the-year-2017-idUSRTX3K0L3,MRPRC13EBC473D0_RTRMADP_0_CUBA-CIGARS
Khalil Ashawi,"A rebel fighter carries an injured boy after a car bomb explosion in Jub al Barazi east of the northern Syrian town of al-Bab, Syria",January 15,https://s1.reutersmedia.net/resources/r/?m=02&d=20180112&t=2&i=1221554064&w=780&fh=&fw=&ll=&pl=&sq=&r=2018-01-12T204514Z_29091_MRPRC15FBF5E3A0_RTRMADP_0_MIDEAST-CRISIS-SYRIA,False,true,https://www.reuters.com/news/picture/pictures-of-the-year-2017-idUSRTX3K0L3,MRPRC15FBF5E3A0_RTRMADP_0_MIDEAST-CRISIS-SYRIA
Stefan Wermuth,"Traffic cones are seen on the bank of the River Thames during low tide in London, Britain",January 19,https://s4.reutersmedia.net/resources/r/?m=02&d=20180112&t=2&i=1221554063&w=780&fh=&fw=&ll=&pl=&sq=&r=2018-01-12T204514Z_29091_MRPRC1882D3A510_RTRMADP_0_BRITAIN-THAMES,False,true,https://www.reuters.com/news/picture/pictures-of-the-year-2017-idUSRTX3K0L3,MRPRC1882D3A510_RTRMADP_0_BRITAIN-THAMES
Carlos Garcia Rawlins,"A protester holds a national flag as a bank branch, housed in the magistracy of the Supreme Court of Justice, burns during a rally against Venezuela's President Nicolas Maduro, in Caracas, Venezuela June 12",,https://s4.reutersmedia.net/resources/r/?m=02&d=20180112&t=2&i=1221554153&w=780&fh=&fw=&ll=&pl=&sq=&r=2018-01-12T204514Z_29091_MRPRC1EEB938CE0_RTRMADP_0_VENEZUELA-POLITICS,False,true,https://www.reuters.com/news/picture/pictures-of-the-year-2017-idUSRTX3K0L3,MRPRC1EEB938CE0_RTRMADP_0_VENEZUELA-POLITICS
Aly Song,"A man carries his pet cat as he walks under the cherry blossoms at Tongji University in Shanghai, China",April 4,https://s2.reutersmedia.net/resources/r/?m=02&d=20180112&t=2&i=1221554072&w=780&fh=&fw=&ll=&pl=&sq=&r=2018-01-12T204514Z_29091_MRPRC1986B4DDD0_RTRMADP_0_CHINA-DAILYLIFE,False,true,https://www.reuters.com/news/picture/pictures-of-the-year-2017-idUSRTX3K0L3,MRPRC1986B4DDD0_RTRMADP_0_CHINA-DAILYLIFE
Ueslei Marcelino,"Police investigators and forensic technicians investigate a crime scene where a man was killed in Manaus, Brazil, January 6 Police erected roadblocks and increased patrols around Manaus to hunt down more than 100 inmates who escaped from a prison in Manaus during a riot According to local media, police reported more than 12 murders in Manaus in the 24 hours after the escape",,https://s4.reutersmedia.net/resources/r/?m=02&d=20180112&t=2&i=1221554112&w=780&fh=&fw=&ll=&pl=&sq=&r=2018-01-12T204514Z_29091_MRPRC1E523CE140_RTRMADP_0_BRAZIL-PRISON-RIOT,False,true,https://www.reuters.com/news/picture/pictures-of-the-year-2017-idUSRTX3K0L3,MRPRC1E523CE140_RTRMADP_0_BRAZIL-PRISON-RIOT
Goran Tomasevic,"An Iraqi special forces soldier shot dead an Islamic State suicide bomber in Mosul, Iraq March 3",,https://s3.reutersmedia.net/resources/r/?m=02&d=20180112&t=2&i=1221554067&w=780&fh=&fw=&ll=&pl=&sq=&r=2018-01-12T204514Z_29091_MRPRC1BDA41D430_RTRMADP_0_MIDEAST-CRISIS-IRAQ-MOSUL,False,true,https://www.reuters.com/news/picture/pictures-of-the-year-2017-idUSRTX3K0L3,MRPRC1BDA41D430_RTRMADP_0_MIDEAST-CRISIS-IRAQ-MOSUL
Ricardo Moraes,"A demonstrator kicks a vehicle in a protest against President Michel Temer's proposal to reform Brazil's social security system during a general strike in Rio de Janeiro, Brazil",April 28,https://s4.reutersmedia.net/resources/r/?m=02&d=20180112&t=2&i=1221554086&w=780&fh=&fw=&ll=&pl=&sq=&r=2018-01-12T204514Z_29091_MRPRC1D4524BBB0_RTRMADP_0_BRAZIL-POLITICS-PROTESTS,False,true,https://www.reuters.com/news/picture/pictures-of-the-year-2017-idUSRTX3K0L3,MRPRC1D4524BBB0_RTRMADP_0_BRAZIL-POLITICS-PROTESTS
Maxim Shemetov,"Law enforcement officers detain an opposition supporter during a rally in Moscow, Russia",March 26,https://s4.reutersmedia.net/resources/r/?m=02&d=20180112&t=2&i=1221554045&w=780&fh=&fw=&ll=&pl=&sq=&r=2018-01-12T204514Z_29091_MRPRC135AF684A0_RTRMADP_0_RUSSIA-PROTESTS,False,true,https://www.reuters.com/news/picture/pictures-of-the-year-2017-idUSRTX3K0L3,MRPRC135AF684A0_RTRMADP_0_RUSSIA-PROTESTS
Siegfried Modola,"An aerial view shows the remains of burnt homes from what residents said was the latest attack by armed men in Thonyor, Leer County, South Sudan February 23",,https://s3.reutersmedia.net/resources/r/?m=02&d=20180112&t=2&i=1221554036&w=780&fh=&fw=&ll=&pl=&sq=&r=2018-01-12T204514Z_29091_MRPRC122EFB1B80_RTRMADP_0_AFRICA-HUNGER-SOUTH-SUDAN,False,true,https://www.reuters.com/news/picture/pictures-of-the-year-2017-idUSRTX3K0L3,MRPRC122EFB1B80_RTRMADP_0_AFRICA-HUNGER-SOUTH-SUDAN
Nacho Doce,"Benedito, 66, smokes prawns as he checks it on a wood-fired oven in Corumbau village on the coast of Bahia state, Brazil",February 19,https://s2.reutersmedia.net/resources/r/?m=02&d=20180112&t=2&i=1221554079&w=780&fh=&fw=&ll=&pl=&sq=&r=2018-01-12T204514Z_29091_MRPRC16A77BBAE0_RTRMADP_0_BRAZIL-DAILYLIFE,False,true,https://www.reuters.com/news/picture/pictures-of-the-year-2017-idUSRTX3K0L3,MRPRC16A77BBAE0_RTRMADP_0_BRAZIL-DAILYLIFE
Omar Sobhani,"Afghan policemen try to rescue four-year-old Ali Ahmad at the site of a suicide attack followed by a clash between Afghan forces and insurgents after an attack on a Shi'ite Muslim mosque in Kabul, Afghanistan",August 25,https://s4.reutersmedia.net/resources/r/?m=02&d=20180112&t=2&i=1221554088&w=780&fh=&fw=&ll=&pl=&sq=&r=2018-01-12T204514Z_29091_MRPRC192E82E330_RTRMADP_0_AFGHANISTAN-ATTACK-BOY,False,true,https://www.reuters.com/news/picture/pictures-of-the-year-2017-idUSRTX3K0L3,MRPRC192E82E330_RTRMADP_0_AFGHANISTAN-ATTACK-BOY
Alexandre Meneghini,"Cockfighting enthusiasts show a rooster through the window of a vintage car on their way to a cockfighting arena at the outskirts of Ciro Redondo, central region of Ciego de Avila province, Cuba",February 15,https://s2.reutersmedia.net/resources/r/?m=02&d=20180112&t=2&i=1221554066&w=780&fh=&fw=&ll=&pl=&sq=&r=2018-01-12T204514Z_29091_MRPRC1BA74FA9C0_RTRMADP_0_CUBA-COCKFIGHTING,False,true,https://www.reuters.com/news/picture/pictures-of-the-year-2017-idUSRTX3K0L3,MRPRC1BA74FA9C0_RTRMADP_0_CUBA-COCKFIGHTING
Issei Kato,Switzerland's Stan Wawrinka serves during his Men's singles fourth round match against Italy's Andreas Seppi at the Australian Open,January 22,https://s3.reutersmedia.net/resources/r/?m=02&d=20180112&t=2&i=1221554115&w=780&fh=&fw=&ll=&pl=&sq=&r=2018-01-12T204514Z_29091_MRPSR1ED1M0IAO6D_RTRMADP_0_TENNIS-OPEN,False,true,https://www.reuters.com/news/picture/pictures-of-the-year-2017-idUSRTX3K0L3,MRPSR1ED1M0IAO6D_RTRMADP_0_TENNIS-OPEN
Saumya Khandelwal,"Men feed seagulls along the Yamuna river on a smoggy morning in New Delhi, India",November 17,https://s2.reutersmedia.net/resources/r/?m=02&d=20180112&t=2&i=1221554098&w=780&fh=&fw=&ll=&pl=&sq=&r=2018-01-12T204514Z_29091_MRPRC1D95852D00_RTRMADP_0_INDIA-DAILYLIFE,False,true,https://www.reuters.com/news/picture/pictures-of-the-year-2017-idUSRTX3K0L3,MRPRC1D95852D00_RTRMADP_0_INDIA-DAILYLIFE
Baz Ratner,"An opposition politician of the National Super Alliance (NASA) coalition, reacts after a gas canister fired by policemen hits his car during a protest along a street in Nairobi, Kenya",October 13,https://s3.reutersmedia.net/resources/r/?m=02&d=20180112&t=2&i=1221554038&w=780&fh=&fw=&ll=&pl=&sq=&r=2018-01-12T204514Z_29091_MRPRC12B2199BD0_RTRMADP_0_KENYA-ELECTION,False,true,https://www.reuters.com/news/picture/pictures-of-the-year-2017-idUSRTX3K0L3,MRPRC12B2199BD0_RTRMADP_0_KENYA-ELECTION
Marco Bello,"A man who was set on fire by people accusing him of stealing during a rally against Venezuela's President Nicolas Maduro runs amidst opposition supporters in Caracas, Venezuela",May 20,https://s2.reutersmedia.net/resources/r/?m=02&d=20180112&t=2&i=1221554152&w=780&fh=&fw=&ll=&pl=&sq=&r=2018-01-12T204514Z_29091_MRPRC1EE3C12530_RTRMADP_0_VENEZUELA-POLITICS-IMAGE,False,true,https://www.reuters.com/news/picture/pictures-of-the-year-2017-idUSRTX3K0L3,MRPRC1EE3C12530_RTRMADP_0_VENEZUELA-POLITICS-IMAGE
Gleb Garanich,"Tanks are seen in the government-held industrial town of Avdiyivka, Ukraine",February 1,https://s3.reutersmedia.net/resources/r/?m=02&d=20180112&t=2&i=1221554104&w=780&fh=&fw=&ll=&pl=&sq=&r=2018-01-12T204514Z_29091_MRPRC1B2EB76E40_RTRMADP_0_UKRAINE-CRISIS-NATO,False,true,https://www.reuters.com/news/picture/pictures-of-the-year-2017-idUSRTX3K0L3,MRPRC1B2EB76E40_RTRMADP_0_UKRAINE-CRISIS-NATO
Mike Segar,J Class boats compete in a regatta between race days of the America's Cup finals,,https://s4.reutersmedia.net/resources/r/?m=02&d=20180112&t=2&i=1221554076&w=780&fh=&fw=&ll=&pl=&sq=&r=2018-01-12T204514Z_29091_MRPRC1BF41E6E10_RTRMADP_0_SAILING-AMERICAS,False,true,https://www.reuters.com/news/picture/pictures-of-the-year-2017-idUSRTX3K0L3,MRPRC1BF41E6E10_RTRMADP_0_SAILING-AMERICAS
Ammar Awad,Palestinians react following tear gas that was shot by Israeli forces after Friday prayer on a street outside Jerusalem's Old City,July 21,https://s4.reutersmedia.net/resources/r/?m=02&d=20180112&t=2&i=1221554134&w=780&fh=&fw=&ll=&pl=&sq=&r=2018-01-12T204514Z_29091_MRPRC1E8213E900_RTRMADP_0_ISRAEL-PALESTINIANS,False,true,https://www.reuters.com/news/picture/pictures-of-the-year-2017-idUSRTX3K0L3,MRPRC1E8213E900_RTRMADP_0_ISRAEL-PALESTINIANS
Navesh Chitrakar,"Young Hindu priests take a holy bath together as part of a ritual during the sacred thread festival at the Pashupatinath temple in Kathmandu, Nepal July 28 Hindus take holy baths and change their sacred threads, also known as janai, for protection and purification during the festival",,https://s3.reutersmedia.net/resources/r/?m=02&d=20180112&t=2&i=1221554158&w=780&fh=&fw=&ll=&pl=&sq=&r=2018-01-12T204514Z_29091_MRPRC1FDEB2B900_RTRMADP_0_NEPAL-RELIGION,False,true,https://www.reuters.com/news/picture/pictures-of-the-year-2017-idUSRTX3K0L3,MRPRC1FDEB2B900_RTRMADP_0_NEPAL-RELIGION
Kai Pfaffenbach,A man takes a ride on a police wrecker in the Schanze district of Hamburg following the G20 summit,July 8,https://s4.reutersmedia.net/resources/r/?m=02&d=20180112&t=2&i=1221554157&w=780&fh=&fw=&ll=&pl=&sq=&r=2018-01-12T204514Z_29091_MRPUP1ED781S63NX_RTRMADP_0_G20-GERMANY-PROTEST,False,true,https://www.reuters.com/news/picture/pictures-of-the-year-2017-idUSRTX3K0L3,MRPUP1ED781S63NX_RTRMADP_0_G20-GERMANY-PROTEST
Carlos Barria,US President Donald Trump speaks during an interview with Reuters in the Oval Office of the White House in Washington,April 27,https://s3.reutersmedia.net/resources/r/?m=02&d=20180112&t=2&i=1221554030&w=780&fh=&fw=&ll=&pl=&sq=&r=2018-01-12T204514Z_29091_MRPHP1ED4S02VJ7Y_RTRMADP_0_USA-TRUMP,False,true,https://www.reuters.com/news/picture/pictures-of-the-year-2017-idUSRTX3K0L3,MRPHP1ED4S02VJ7Y_RTRMADP_0_USA-TRUMP
Stringer,"Pigs are herded off a platform into water by breeders during a daily exercise at a pig farm in Shenyang, Liaoning province, China, August 2017",,https://s4.reutersmedia.net/resources/r/?m=02&d=20180112&t=2&i=1221554116&w=780&fh=&fw=&ll=&pl=&sq=&r=2018-01-12T204514Z_29091_MRPRC1BD36BA2A0_RTRMADP_0_CHINA-ODDLY,False,true,https://www.reuters.com/news/picture/pictures-of-the-year-2017-idUSRTX3K0L3,MRPRC1BD36BA2A0_RTRMADP_0_CHINA-ODDLY
Thomas Mukoya,"A woman gestures as she mourns the death of a protester in Mathare, in Nairobi, Kenya",August 9,https://s3.reutersmedia.net/resources/r/?m=02&d=20180112&t=2&i=1221554078&w=780&fh=&fw=&ll=&pl=&sq=&r=2018-01-12T204514Z_29091_MRPRC156529C790_RTRMADP_0_KENYA-ELECTION,False,true,https://www.reuters.com/news/picture/pictures-of-the-year-2017-idUSRTX3K0L3,MRPRC156529C790_RTRMADP_0_KENYA-ELECTION
Kacper Pempel,"Revellers take part in a traditional event marking the last day of the carnival season called ""Kusaki"", a folk party and a re-enactment showing the ""defeat of Death"" where all roles are played by males, which takes place on Shrove Tuesday in the village of Jedlinsk near Radom, Poland",February 28,https://s3.reutersmedia.net/resources/r/?m=02&d=20180112&t=2&i=1221554136&w=780&fh=&fw=&ll=&pl=&sq=&r=2018-01-12T204514Z_29091_MRPRC1EC806ED70_RTRMADP_0_POLAND-CARNIVAL,False,true,https://www.reuters.com/news/picture/pictures-of-the-year-2017-idUSRTX3K0L3,MRPRC1EC806ED70_RTRMADP_0_POLAND-CARNIVAL
Carlos Barria,"Carmen De Jesus uses a flashlight at the Moradas Las Teresas Elderly House, where about two hundred elderly people live without electricity following damages caused by Hurricane Maria in Carolina, Puerto Rico",September 30,https://s3.reutersmedia.net/resources/r/?m=02&d=20180112&t=2&i=1221554103&w=780&fh=&fw=&ll=&pl=&sq=&r=2018-01-12T204514Z_29091_MRPRC19DFAC22F0_RTRMADP_0_USA-PUERTORICO,False,true,https://www.reuters.com/news/picture/pictures-of-the-year-2017-idUSRTX3K0L3,MRPRC19DFAC22F0_RTRMADP_0_USA-PUERTORICO
Alessandro Bianchi,"A worker, known as a ""Tecchiaiolo"", examines marble at the Cervaiole quarry on Monte Altissimo in the Apuan Alps, Tuscany, Italy",July 18,https://s2.reutersmedia.net/resources/r/?m=02&d=20180112&t=2&i=1221554141&w=780&fh=&fw=&ll=&pl=&sq=&r=2018-01-12T204514Z_29091_MRPRC1FEC083000_RTRMADP_0_ITALY-MARBLE,False,true,https://www.reuters.com/news/picture/pictures-of-the-year-2017-idUSRTX3K0L3,MRPRC1FEC083000_RTRMADP_0_ITALY-MARBLE
Mohammad Ponir Hossain,"Hamida, a Rohingya refugee woman, cries as she holds her 40-day-old son, who died as a boat capsized in the shore of Shah Porir Dwip, in Teknaf, Bangladesh",September 14,https://s2.reutersmedia.net/resources/r/?m=02&d=20180112&t=2&i=1221554121&w=780&fh=&fw=&ll=&pl=&sq=&r=2018-01-12T204514Z_29091_MRPRC19975106C0_RTRMADP_0_MYANMAR-ROHINGYA-BANGLADESH-IMAGE,False,true,https://www.reuters.com/news/picture/pictures-of-the-year-2017-idUSRTX3K0L3,MRPRC19975106C0_RTRMADP_0_MYANMAR-ROHINGYA-BANGLADESH-IMAGE
Ivan Alvarado,"People react as they watch a sesion of the Catalonian regional parliament on a giant screen at a pro-independence rally in Barcelona, Spain",October 10,https://s1.reutersmedia.net/resources/r/?m=02&d=20180112&t=2&i=1221554057&w=780&fh=&fw=&ll=&pl=&sq=&r=2018-01-12T204514Z_29091_MRPRC17B08E36C0_RTRMADP_0_SPAIN-POLITICS-CATALONIA,False,true,https://www.reuters.com/news/picture/pictures-of-the-year-2017-idUSRTX3K0L3,MRPRC17B08E36C0_RTRMADP_0_SPAIN-POLITICS-CATALONIA
Romeo Ranoco,"Damaged houses, buildings and a mosque are seen inside Marawi city, Philippines",October 25,https://s4.reutersmedia.net/resources/r/?m=02&d=20180112&t=2&i=1221554081&w=780&fh=&fw=&ll=&pl=&sq=&r=2018-01-12T204514Z_29091_MRPRC15B13C1EB0_RTRMADP_0_PHILIPPINES-MILITANTS,False,true,https://www.reuters.com/news/picture/pictures-of-the-year-2017-idUSRTX3K0L3,MRPRC15B13C1EB0_RTRMADP_0_PHILIPPINES-MILITANTS
Jean-Paul Pelissier,Model Elsa Hosk poses on the red carpet at the Cannes Film Festival,,https://s4.reutersmedia.net/resources/r/?m=02&d=20180112&t=2&i=1221554107&w=780&fh=&fw=&ll=&pl=&sq=&r=2018-01-12T204514Z_29091_MRPRC176D45EF00_RTRMADP_0_FILMFESTIVAL-CANNES,False,true,https://www.reuters.com/news/picture/pictures-of-the-year-2017-idUSRTX3K0L3,MRPRC176D45EF00_RTRMADP_0_FILMFESTIVAL-CANNES
Carlos Garcia Rawlins,"Opposition supporters clash with riot security forces while rallying against President Nicolas Maduro in Caracas, Venezuela",May 18,https://s4.reutersmedia.net/resources/r/?m=02&d=20180112&t=2&i=1221554058&w=780&fh=&fw=&ll=&pl=&sq=&r=2018-01-12T204514Z_29091_MRPRC18BEC15E10_RTRMADP_0_VENEZUELA-POLITICS,False,true,https://www.reuters.com/news/picture/pictures-of-the-year-2017-idUSRTX3K0L3,MRPRC18BEC15E10_RTRMADP_0_VENEZUELA-POLITICS
Henry Romero,"Soldiers and rescue workers search in the rubble of a collapsed building after an earthquake in Mexico City, Mexico September 20",,https://s2.reutersmedia.net/resources/r/?m=02&d=20180112&t=2&i=1221554089&w=780&fh=&fw=&ll=&pl=&sq=&r=2018-01-12T204514Z_29091_MRPRC1DD0AB5790_RTRMADP_0_MEXICO-QUAKE,False,true,https://www.reuters.com/news/picture/pictures-of-the-year-2017-idUSRTX3K0L3,MRPRC1DD0AB5790_RTRMADP_0_MEXICO-QUAKE
"Lucas Jackson (L), Stelios Varias","A combination of photos taken at the National Mall shows the crowds attending the inauguration ceremonies to swear in President Trump at 12:01pm (L) on January 20, 2017 and President Obama on January 20, 2009, in Washington",,https://s3.reutersmedia.net/resources/r/?m=02&d=20180112&t=2&i=1221554122&w=780&fh=&fw=&ll=&pl=&sq=&r=2018-01-12T204514Z_29091_MRPRC1A16632CE0_RTRMADP_0_USA-TRUMP-INAUGURATION,False,true,https://www.reuters.com/news/picture/pictures-of-the-year-2017-idUSRTX3K0L3,MRPRC1A16632CE0_RTRMADP_0_USA-TRUMP-INAUGURATION
Dylan Martinez,Demonstrators hold placards during a protest against US President Donald Trump's executive order travel ban in London,,https://s3.reutersmedia.net/resources/r/?m=02&d=20180112&t=2&i=1221554074&w=780&fh=&fw=&ll=&pl=&sq=&r=2018-01-12T204514Z_29091_MRPRC1A5CFAACC0_RTRMADP_0_USA-TRUMP-IMMIGRATION-LONDON-DEMO,False,true,https://www.reuters.com/news/picture/pictures-of-the-year-2017-idUSRTX3K0L3,MRPRC1A5CFAACC0_RTRMADP_0_USA-TRUMP-IMMIGRATION-LONDON-DEMO
Soe Zeya Tun,"Police officers stand guard during a fire at Kandawgyi Palace hotel in Yangon, Myanmar October 19",,https://s2.reutersmedia.net/resources/r/?m=02&d=20180112&t=2&i=1221554092&w=780&fh=&fw=&ll=&pl=&sq=&r=2018-01-12T204514Z_29091_MRPRC15208DAF00_RTRMADP_0_MYANMAR-FIRE,False,true,https://www.reuters.com/news/picture/pictures-of-the-year-2017-idUSRTX3K0L3,MRPRC15208DAF00_RTRMADP_0_MYANMAR-FIRE
Khaled Abdullah,"A medic holds the body of a girl recovered from under the rubble of a house destroyed by a Saudi-led air strike in Sanaa, Yemen",August 25,https://s4.reutersmedia.net/resources/r/?m=02&d=20180112&t=2&i=1221554049&w=780&fh=&fw=&ll=&pl=&sq=&r=2018-01-12T204514Z_29091_MRPRC13AA188020_RTRMADP_0_YEMEN-SECURITY,False,true,https://www.reuters.com/news/picture/pictures-of-the-year-2017-idUSRTX3K0L3,MRPRC13AA188020_RTRMADP_0_YEMEN-SECURITY
Bruno Kelly,"Burning forest is seen during ""Operation Green Wave"" conducted by agents of the Brazilian Institute for the Environment and Renewable Natural Resources, or Ibama, to combat illegal logging in Apui, in the southern region of the state of Amazonas, Brazil",August 4,https://s3.reutersmedia.net/resources/r/?m=02&d=20180112&t=2&i=1221554108&w=780&fh=&fw=&ll=&pl=&sq=&r=2018-01-12T204514Z_29091_MRPRC155E73D3F0_RTRMADP_0_BRAZIL-DEFORESTATION,False,true,https://www.reuters.com/news/picture/pictures-of-the-year-2017-idUSRTX3K0L3,MRPRC155E73D3F0_RTRMADP_0_BRAZIL-DEFORESTATION
Zohra Bensemra,"Displaced Iraqi women who just fled their home,rest in the desert as they wait to be transported while Iraqi forces battle with Islamic State militants in western Mosul",February 27,https://s3.reutersmedia.net/resources/r/?m=02&d=20180112&t=2&i=1221554056&w=780&fh=&fw=&ll=&pl=&sq=&r=2018-01-12T204514Z_29091_MRPRC12EC672A90_RTRMADP_0_MIDEAST-CRISIS-IRAQ-MOSUL,False,true,https://www.reuters.com/news/picture/pictures-of-the-year-2017-idUSRTX3K0L3,MRPRC12EC672A90_RTRMADP_0_MIDEAST-CRISIS-IRAQ-MOSUL
Navesh Chitrakar,"Flood victims work on the Jute plant at the flood affected area at Saptari District, Nepal",August 14,https://s4.reutersmedia.net/resources/r/?m=02&d=20180112&t=2&i=1221554095&w=780&fh=&fw=&ll=&pl=&sq=&r=2018-01-12T204514Z_29091_MRPRC1BC7688CA0_RTRMADP_0_NEPAL-FLOODS,False,true,https://www.reuters.com/news/picture/pictures-of-the-year-2017-idUSRTX3K0L3,MRPRC1BC7688CA0_RTRMADP_0_NEPAL-FLOODS
Damir Sagolj,Marin Honda of Japan in action at the Grand Prix of Figure Skating in Beijing,,https://s2.reutersmedia.net/resources/r/?m=02&d=20180112&t=2&i=1221554111&w=780&fh=&fw=&ll=&pl=&sq=&r=2018-01-12T204514Z_29091_MRPRC1DC1CD5C10_RTRMADP_0_FIGURESKATING-ISU-BEIJING,False,true,https://www.reuters.com/news/picture/pictures-of-the-year-2017-idUSRTX3K0L3,MRPRC1DC1CD5C10_RTRMADP_0_FIGURESKATING-ISU-BEIJING
Carlos Barria,"US President Donald Trump welcomes 11-years-old Frank Giaccio as he cuts the Rose Garden grass at the White House in Washington, September 15 Frank, who wrote a letter to Trump offering to mow the White House lawn, was invited to work for a day at the White House along the National Park Service staff",,https://s3.reutersmedia.net/resources/r/?m=02&d=20180112&t=2&i=1221554062&w=780&fh=&fw=&ll=&pl=&sq=&r=2018-01-12T204514Z_29091_MRPRC158797DB20_RTRMADP_0_USA-TRUMP,False,true,https://www.reuters.com/news/picture/pictures-of-the-year-2017-idUSRTX3K0L3,MRPRC158797DB20_RTRMADP_0_USA-TRUMP
Ahmed Jadallah,"A migrant arrives at a naval base after he was rescued by Libyan coastal guards in Tripoli, Libya",November 6,https://s1.reutersmedia.net/resources/r/?m=02&d=20180112&t=2&i=1221554083&w=780&fh=&fw=&ll=&pl=&sq=&r=2018-01-12T204514Z_29091_MRPRC1A2AAB45A0_RTRMADP_0_EUROPE-MIGRANTS-LIBYA,False,true,https://www.reuters.com/news/picture/pictures-of-the-year-2017-idUSRTX3K0L3,MRPRC1A2AAB45A0_RTRMADP_0_EUROPE-MIGRANTS-LIBYA
Lucas Jackson,New York Police Department officers arrest a woman who was taking part in a 'Day Without a Woman' march on International Women's Day in New York,March 8,https://s2.reutersmedia.net/resources/r/?m=02&d=20180112&t=2&i=1221554094&w=780&fh=&fw=&ll=&pl=&sq=&r=2018-01-12T204514Z_29091_MRPRC1D8F38D280_RTRMADP_0_WOMENS-DAY-USA-NYC,False,true,https://www.reuters.com/news/picture/pictures-of-the-year-2017-idUSRTX3K0L3,MRPRC1D8F38D280_RTRMADP_0_WOMENS-DAY-USA-NYC
Alaa Al-Marjani,"Iraqi Special Operations Forces arrest a person suspected of belonging to Islamic State militants in western Mosul, Iraq",February 26,https://s2.reutersmedia.net/resources/r/?m=02&d=20180112&t=2&i=1221554119&w=780&fh=&fw=&ll=&pl=&sq=&r=2018-01-12T204514Z_29091_MRPRC1DE605C730_RTRMADP_0_MIDEAST-CRISIS-MOSUL-SCREENING,False,true,https://www.reuters.com/news/picture/pictures-of-the-year-2017-idUSRTX3K0L3,MRPRC1DE605C730_RTRMADP_0_MIDEAST-CRISIS-MOSUL-SCREENING
Gilles Adt,"A long time exposure shows molten lava which flows from the Piton de la Fournaise, one of the world's most active volcanoes on the French Indian Ocean Reunion Island",February 3,https://s3.reutersmedia.net/resources/r/?m=02&d=20180112&t=2&i=1221554032&w=780&fh=&fw=&ll=&pl=&sq=&r=2018-01-12T204514Z_29091_MRPLR1ED241KZWL5_RTRMADP_0_REUNION-VOLCANO,False,true,https://www.reuters.com/news/picture/pictures-of-the-year-2017-idUSRTX3K0L3,MRPLR1ED241KZWL5_RTRMADP_0_REUNION-VOLCANO
Aly Song,"Skyscrapers Shanghai Tower (L), Jin Mao Tower (Top) and Shanghai World Financial Center are seen during a hazy day at the financial district of Pudong in Shanghai, China",March 20,https://s4.reutersmedia.net/resources/r/?m=02&d=20180112&t=2&i=1221554087&w=780&fh=&fw=&ll=&pl=&sq=&r=2018-01-12T204514Z_29091_MRPRC1CFB242650_RTRMADP_0_CHINA-ECONOMY,False,true,https://www.reuters.com/news/picture/pictures-of-the-year-2017-idUSRTX3K0L3,MRPRC1CFB242650_RTRMADP_0_CHINA-ECONOMY
Rafael Marchante,"A shrine is seen after a forest fire near the village of Serta, Portugal",September 9,https://s2.reutersmedia.net/resources/r/?m=02&d=20180112&t=2&i=1221554118&w=780&fh=&fw=&ll=&pl=&sq=&r=2018-01-12T204514Z_29091_MRPRC182311B060_RTRMADP_0_PORTUGAL-FIRE,False,true,https://www.reuters.com/news/picture/pictures-of-the-year-2017-idUSRTX3K0L3,MRPRC182311B060_RTRMADP_0_PORTUGAL-FIRE
Kai Pfaffenbach,"A woman pushes a pram as she walks over a frozen lake during sun down at the Pajulahti sports center near Lahti, Finland",February 21,https://s4.reutersmedia.net/resources/r/?m=02&d=20180112&t=2&i=1221554042&w=780&fh=&fw=&ll=&pl=&sq=&r=2018-01-12T204514Z_29091_MRPRC139D26F400_RTRMADP_0_FINLAND-WEATHER,False,true,https://www.reuters.com/news/picture/pictures-of-the-year-2017-idUSRTX3K0L3,MRPRC139D26F400_RTRMADP_0_FINLAND-WEATHER
Bassam Khabieh,"Salah Skaff, 25, reacts over the body of his daughter Amira Skaff, 15 years old, after an airstrike on the rebel held besieged city of Douma, in the eastern Damascus suburb of Ghouta, Syria April 7",,https://s1.reutersmedia.net/resources/r/?m=02&d=20180112&t=2&i=1221554154&w=780&fh=&fw=&ll=&pl=&sq=&r=2018-01-12T204514Z_29091_MRPRC1FA3FEF040_RTRMADP_0_MIDEAST-CRISIS-SYRIA,False,true,https://www.reuters.com/news/picture/pictures-of-the-year-2017-idUSRTX3K0L3,MRPRC1FA3FEF040_RTRMADP_0_MIDEAST-CRISIS-SYRIA
Bassam Khabieh,"Abu Malek, one of the survivors of a chemical attack in the Ghouta region of Damascus that took place in 2013, uses his crutches to walk along a street in the Ghouta town of Ain Tarma, Syria",April 7,https://s1.reutersmedia.net/resources/r/?m=02&d=20180112&t=2&i=1221554051&w=780&fh=&fw=&ll=&pl=&sq=&r=2018-01-12T204514Z_29091_MRPRC137E67AE00_RTRMADP_0_MIDEAST-CRISIS-SYRIA-GHOUTA,False,true,https://www.reuters.com/news/picture/pictures-of-the-year-2017-idUSRTX3K0L3,MRPRC137E67AE00_RTRMADP_0_MIDEAST-CRISIS-SYRIA-GHOUTA
Thomas Peter,"Members of the Saudi delegation wait for the arrival of China's President Xi Jinping and Saudi King Salman bin Abdulaziz Al-Saud before a welcoming ceremony at the Great Hall of the People in Beijing, China",March 16,https://s1.reutersmedia.net/resources/r/?m=02&d=20180112&t=2&i=1221554090&w=780&fh=&fw=&ll=&pl=&sq=&r=2018-01-12T204514Z_29091_MRPRC1442EF8870_RTRMADP_0_SAUDI-ASIA-CHINA,False,true,https://www.reuters.com/news/picture/pictures-of-the-year-2017-idUSRTX3K0L3,MRPRC1442EF8870_RTRMADP_0_SAUDI-ASIA-CHINA
Alexandre Meneghini,"People connect to the internet at a hotspot in Havana, Cuba",January 19,https://s4.reutersmedia.net/resources/r/?m=02&d=20180112&t=2&i=1221554114&w=780&fh=&fw=&ll=&pl=&sq=&r=2018-01-12T204514Z_29091_MRPRC1F0F9421D0_RTRMADP_0_CUBA-INTERNET,False,true,https://www.reuters.com/news/picture/pictures-of-the-year-2017-idUSRTX3K0L3,MRPRC1F0F9421D0_RTRMADP_0_CUBA-INTERNET
Sergei Karpukhin,"Russian President Vladimir Putin attends a wreath laying ceremony to mark the Defender of the Fatherland Day at the Tomb of the Unknown Soldier by the Kremlin wall in central Moscow, Russia",February 23,https://s2.reutersmedia.net/resources/r/?m=02&d=20180112&t=2&i=1221554033&w=780&fh=&fw=&ll=&pl=&sq=&r=2018-01-12T204514Z_29091_MRPLR1ED2N0RTH6V_RTRMADP_0_RUSSIA-DEFENCE,False,true,https://www.reuters.com/news/picture/pictures-of-the-year-2017-idUSRTX3K0L3,MRPLR1ED2N0RTH6V_RTRMADP_0_RUSSIA-DEFENCE
Damir Sagolj,"North Korean soldiers march during a military parade marking the 105th birth anniversary of the country's founding father Kim Il Sung in Pyongyang, North Korea",,https://s1.reutersmedia.net/resources/r/?m=02&d=20180112&t=2&i=1221554061&w=780&fh=&fw=&ll=&pl=&sq=&r=2018-01-12T204514Z_29091_MRPRC17E3A1D800_RTRMADP_0_NORTHKOREA-USA,False,true,https://www.reuters.com/news/picture/pictures-of-the-year-2017-idUSRTX3K0L3,MRPRC17E3A1D800_RTRMADP_0_NORTHKOREA-USA
Paul Hanna,"Qi Guangpu of China performs an aerial as he trains during the Snowboarding and Freestyle Skiing World Championships in Sierra Nevada, Spain",,https://s2.reutersmedia.net/resources/r/?m=02&d=20180112&t=2&i=1221554055&w=780&fh=&fw=&ll=&pl=&sq=&r=2018-01-12T204514Z_29091_MRPRC17C3EBCA60_RTRMADP_0_FREESTYLE-SKIING-WORLD,False,true,https://www.reuters.com/news/picture/pictures-of-the-year-2017-idUSRTX3K0L3,MRPRC17C3EBCA60_RTRMADP_0_FREESTYLE-SKIING-WORLD
Ammar Awad,"Ultra-Orthodox Jewish protestors are sprayed with water by Israeli police as they block a street during a demonstration against members of their community serving in the Israeli army, part of ongoing demonstrations recently seen throughout Israel, in Jerusalem",February 9,https://s4.reutersmedia.net/resources/r/?m=02&d=20180112&t=2&i=1221554073&w=780&fh=&fw=&ll=&pl=&sq=&r=2018-01-12T204514Z_29091_MRPRC150B0E87D0_RTRMADP_0_ISRAEL-PROTESTS,False,true,https://www.reuters.com/news/picture/pictures-of-the-year-2017-idUSRTX3K0L3,MRPRC150B0E87D0_RTRMADP_0_ISRAEL-PROTESTS
Danish Siddiqui,"An exhausted Rohingya refugee woman touches the shore after crossing the Bangladesh-Myanmar border by boat through the Bay of Bengal, in Shah Porir Dwip, Bangladesh",September 11,https://s2.reutersmedia.net/resources/r/?m=02&d=20180112&t=2&i=1221554096&w=780&fh=&fw=&ll=&pl=&sq=&r=2018-01-12T204514Z_29091_MRPRC1A9E5ED090_RTRMADP_0_MYANMAR-ROHINGYA-BANGLADESH,False,true,https://www.reuters.com/news/picture/pictures-of-the-year-2017-idUSRTX3K0L3,MRPRC1A9E5ED090_RTRMADP_0_MYANMAR-ROHINGYA-BANGLADESH
Jason Reed,Serena Williams of the US serves during her Women's singles third round match against Nicole Gibbs of the US during the Australian Open,,https://s3.reutersmedia.net/resources/r/?m=02&d=20180112&t=2&i=1221554142&w=780&fh=&fw=&ll=&pl=&sq=&r=2018-01-12T204514Z_29091_MRPSR1ED1L0BRGL9_RTRMADP_0_TENNIS-OPEN,False,true,https://www.reuters.com/news/picture/pictures-of-the-year-2017-idUSRTX3K0L3,MRPSR1ED1L0BRGL9_RTRMADP_0_TENNIS-OPEN
Carlos Garcia Rawlins,"Opposition lawmaker Luis Stefanelli (L) gestures next to fellow opposition lawmaker Leonardo Regnault after a group of government supporters burst into Venezuela's opposition-controlled National Assembly during a session, in Caracas, Venezuela",July 5,https://s4.reutersmedia.net/resources/r/?m=02&d=20180112&t=2&i=1221554129&w=780&fh=&fw=&ll=&pl=&sq=&r=2018-01-12T204514Z_29091_MRPRC198387ACA0_RTRMADP_0_VENEZUELA-POLITICS,False,true,https://www.reuters.com/news/picture/pictures-of-the-year-2017-idUSRTX3K0L3,MRPRC198387ACA0_RTRMADP_0_VENEZUELA-POLITICS
Ricardo Moraes,"Scarlet ibis fly near the banks of a mangrove swamp located at the mouth of the Calcoene River on the coast of Amapa state, northern Brazil",April 6,https://s3.reutersmedia.net/resources/r/?m=02&d=20180112&t=2&i=1221554093&w=780&fh=&fw=&ll=&pl=&sq=&r=2018-01-12T204514Z_29091_MRPRC1B4ADA6FE0_RTRMADP_0_BRAZIL-OIL-AMAZON,False,true,https://www.reuters.com/news/picture/pictures-of-the-year-2017-idUSRTX3K0L3,MRPRC1B4ADA6FE0_RTRMADP_0_BRAZIL-OIL-AMAZON
Lucy Nicholson,"Detainees exercise in a recreation area at the Adelanto immigration detention center, which is run by the Geo Group Inc (GEON), in Adelanto, California",April 13,https://s3.reutersmedia.net/resources/r/?m=02&d=20180112&t=2&i=1221554097&w=780&fh=&fw=&ll=&pl=&sq=&r=2018-01-12T204514Z_29091_MRPRC16B432E6F0_RTRMADP_0_USA-IMMIGRATION-DETENTION,False,true,https://www.reuters.com/news/picture/pictures-of-the-year-2017-idUSRTX3K0L3,MRPRC16B432E6F0_RTRMADP_0_USA-IMMIGRATION-DETENTION
Mohamad Torokman,"A Palestinian protester uses a sling to hurl stones towards Israeli troops during clashes at a protest in support of Palestinian prisoners on hunger strike in Israeli jails, near the Jewish settlement of Beit El, near the West Bank city of Ramallah",May 11,https://s2.reutersmedia.net/resources/r/?m=02&d=20180112&t=2&i=1221554145&w=780&fh=&fw=&ll=&pl=&sq=&r=2018-01-12T204514Z_29091_MRPRC1F5F9CE400_RTRMADP_0_ISRAEL-PALESTINIANS-HUNGERSTRIKE,False,true,https://www.reuters.com/news/picture/pictures-of-the-year-2017-idUSRTX3K0L3,MRPRC1F5F9CE400_RTRMADP_0_ISRAEL-PALESTINIANS-HUNGERSTRIKE
Goran Tomasevic,"SPLA-IO (SPLA-In Opposition) rebels carry an injured rebel after an assault on government SPLA (Sudan People's Liberation Army) soldiers, on the road between Kaya and Yondu, South Sudan",August 26,https://s4.reutersmedia.net/resources/r/?m=02&d=20180112&t=2&i=1221554041&w=780&fh=&fw=&ll=&pl=&sq=&r=2018-01-12T204514Z_29091_MRPRC1302D40CA0_RTRMADP_0_SOUTHSUDAN-REBELS,False,true,https://www.reuters.com/news/picture/pictures-of-the-year-2017-idUSRTX3K0L3,MRPRC1302D40CA0_RTRMADP_0_SOUTHSUDAN-REBELS
Kim Kyung-Hoon,"Japanese women wearing kimonos attend their Coming of Age Day celebration ceremony at an amusement park in Tokyo, Japan",January 9,https://s3.reutersmedia.net/resources/r/?m=02&d=20180112&t=2&i=1221554133&w=780&fh=&fw=&ll=&pl=&sq=&r=2018-01-12T204514Z_29091_MRPRC1F33635C00_RTRMADP_0_JAPAN-POPULATION,False,true,https://www.reuters.com/news/picture/pictures-of-the-year-2017-idUSRTX3K0L3,MRPRC1F33635C00_RTRMADP_0_JAPAN-POPULATION
Jaime Saldarriaga,"Rescue members walk during the burial of a companion who died after flooding and mudslides caused by heavy rains lead several rivers to overflow, pushing sediment and rocks into buildings and roads, in Mocoa, Colombia",April 4,https://s2.reutersmedia.net/resources/r/?m=02&d=20180112&t=2&i=1221554060&w=780&fh=&fw=&ll=&pl=&sq=&r=2018-01-12T204514Z_29091_MRPRC17DDE2A970_RTRMADP_0_COLOMBIA-LANDSLIDE,False,true,https://www.reuters.com/news/picture/pictures-of-the-year-2017-idUSRTX3K0L3,MRPRC17DDE2A970_RTRMADP_0_COLOMBIA-LANDSLIDE
Damir Sagolj,"Nobi Hossain wades through the water carrying his elderly relative Sona Banu as hundreds of Rohingya refugees arrive under the cover of darkness by wooden boats from Myanmar to the shore of Shah Porir Dwip, in Teknaf, near Cox's Bazar in Bangladesh",September 27,https://s2.reutersmedia.net/resources/r/?m=02&d=20180112&t=2&i=1221554047&w=780&fh=&fw=&ll=&pl=&sq=&r=2018-01-12T204514Z_29091_MRPRC141D8FB850_RTRMADP_0_MYANMAR-ROHINGYA-BANGLADESH,False,true,https://www.reuters.com/news/picture/pictures-of-the-year-2017-idUSRTX3K0L3,MRPRC141D8FB850_RTRMADP_0_MYANMAR-ROHINGYA-BANGLADESH
Eloy Alonso,"A student stands next to a huge Estelada (Catalan separatist flag) inside the University of Barcelona's historic building the day after the banned independence referendum in Barcelona, Spain",October 2,https://s1.reutersmedia.net/resources/r/?m=02&d=20180112&t=2&i=1221554148&w=780&fh=&fw=&ll=&pl=&sq=&r=2018-01-12T204514Z_29091_MRPRC1FC865BB00_RTRMADP_0_SPAIN-POLITICS-CATALONIA,False,true,https://www.reuters.com/news/picture/pictures-of-the-year-2017-idUSRTX3K0L3,MRPRC1FC865BB00_RTRMADP_0_SPAIN-POLITICS-CATALONIA
